<?xml version="1.0" encoding="UTF-8"?>
<svg width="48px" height="60px" viewBox="0 0 48 60" version="1.1" xmlns="http://www.w3.org/2000/svg" xmlns:xlink="http://www.w3.org/1999/xlink">
    <!-- Generator: Sketch 63.1 (92452) - https://sketch.com -->
    <title>Slice</title>
    <desc>Created with Sketch.</desc>
    <g id="Page-1" stroke="none" stroke-width="1" fill="none" fill-rule="evenodd">
        <g id="Tick-full" transform="translate(0.000000, 6.000000)" fill-rule="nonzero">
            <path d="M24,0 C10.7281106,0 0,10.7281106 0,24 C0,37.2718894 10.7281106,48 24,48 C37.2718894,48 48,37.2718894 48,24 C48,10.7281106 37.2718894,0 24,0 Z" id="Shape" fill="#000000"></path>
            <polygon id="Path" fill="#FFFFFF" points="35 17.9952607 34.0833333 17 20.474359 29.1421801 13.9871795 22.7725118 13 23.7014218 20.4038462 31"></polygon>
        </g>
    </g>
</svg>