<?xml version="1.0" encoding="UTF-8"?>
<svg width="80px" height="80px" viewBox="0 0 80 80" version="1.1" xmlns="http://www.w3.org/2000/svg" xmlns:xlink="http://www.w3.org/1999/xlink">
    <!-- Generator: Sketch 64 (93537) - https://sketch.com -->
    <title>Slice</title>
    <desc>Created with Sketch.</desc>
    <g id="Page-1" stroke="none" stroke-width="1" fill="none" fill-rule="evenodd">
        <g id="noun_Fireworks_2003478" fill="#000000" fill-rule="nonzero">
            <path d="M34.8408203,19.3154297 C34.8408203,22.1601563 37.1552734,24.4746094 40,24.4746094 C42.8447266,24.4746094 45.1591797,22.1601563 45.1591797,19.3154297 C45.1591797,16.4702149 42.8447266,14.1557617 40,14.1557617 C37.1552734,14.1557617 34.8408203,16.4702148 34.8408203,19.3154297 Z M40,16.1557617 C41.7421875,16.1557617 43.1591797,17.5732422 43.1591797,19.3154297 C43.1591797,21.0576172 41.7421875,22.4746094 40,22.4746094 C38.2578125,22.4746094 36.8408203,21.0576172 36.8408203,19.3154297 C36.8408203,17.5732422 38.2578125,16.1557617 40,16.1557617 Z" id="Shape"></path>
            <path d="M21.7255859,29.0214844 C22.7001953,29.9960938 23.9956054,30.5327149 25.3735351,30.5327149 C26.7519531,30.5327149 28.0473632,29.9960938 29.0214843,29.0214844 C29.9960937,28.0473633 30.5327148,26.7519532 30.5327148,25.3735352 C30.5327148,23.9956055 29.9960937,22.7001954 29.0214843,21.725586 C28.0473632,20.7509766 26.7519531,20.2143555 25.3735351,20.2143555 C23.9956054,20.2143555 22.7001953,20.7509766 21.7255859,21.725586 C20.7509765,22.7001954 20.2143554,23.9956055 20.2143554,25.3735352 C20.2143554,26.7519531 20.7509766,28.0473633 21.7255859,29.0214844 Z M23.1396484,23.1396484 C23.7363281,22.5429687 24.5297851,22.2143554 25.3735351,22.2143554 C26.2172851,22.2143554 27.0107421,22.5429687 27.6074218,23.1396484 C28.2041015,23.7363281 28.5327148,24.5297851 28.5327148,25.3735351 C28.5327148,26.2172851 28.2041015,27.0107421 27.6074218,27.6074218 C26.4140624,28.8007812 24.3330077,28.8007812 23.1396484,27.6074218 C22.5429687,27.0107421 22.2143554,26.2172851 22.2143554,25.3735351 C22.2143554,24.5297851 22.5429688,23.7363281 23.1396484,23.1396484 Z" id="Shape"></path>
            <path d="M19.3154297,45.1591797 C22.1601563,45.1591797 24.4746094,42.8447266 24.4746094,40 C24.4746094,37.1552734 22.1601563,34.8408203 19.3154297,34.8408203 C16.4702149,34.8408203 14.1557617,37.1552734 14.1557617,40 C14.1557617,42.8447266 16.4702148,45.1591797 19.3154297,45.1591797 Z M19.3154297,36.8408203 C21.0576172,36.8408203 22.4746094,38.2578125 22.4746094,40 C22.4746094,41.7421875 21.0576172,43.1591797 19.3154297,43.1591797 C17.5732422,43.1591797 16.1557617,41.7421875 16.1557617,40 C16.1557617,38.2578125 17.5732422,36.8408203 19.3154297,36.8408203 Z" id="Shape"></path>
            <path d="M21.7255859,50.9785156 C20.7509765,51.9526367 20.2143554,53.2480468 20.2143554,54.6264648 C20.2143554,56.0043945 20.7509765,57.2998046 21.7255859,58.274414 C22.7001953,59.2490234 23.9956054,59.7856445 25.3735351,59.7856445 C26.7519531,59.7856445 28.0473632,59.2490234 29.0214843,58.274414 C29.9960937,57.2998046 30.5327148,56.0043945 30.5327148,54.6264648 C30.5327148,53.2480468 29.9960937,51.9526367 29.0214843,50.9785156 C28.0473632,50.0039062 26.7519531,49.4672851 25.3735351,49.4672851 C23.9956055,49.4672851 22.7001953,50.0039062 21.7255859,50.9785156 Z M28.5327148,54.6264648 C28.5327148,55.4702148 28.2041015,56.2636718 27.6074218,56.8603515 C26.4140624,58.0537109 24.3330077,58.0537109 23.1396484,56.8603515 C22.5429687,56.2636718 22.2143554,55.4702148 22.2143554,54.6264648 C22.2143554,53.7827148 22.5429687,52.9892578 23.1396484,52.3925781 C23.7363281,51.7958984 24.5297851,51.4672851 25.3735351,51.4672851 C26.2172851,51.4672851 27.0107421,51.7958984 27.6074218,52.3925781 C28.2041015,52.9892578 28.5327148,53.7827148 28.5327148,54.6264648 Z" id="Shape"></path>
            <path d="M45.1591797,60.6845703 C45.1591797,57.8398437 42.8447266,55.5253906 40,55.5253906 C37.1552734,55.5253906 34.8408203,57.8398437 34.8408203,60.6845703 C34.8408203,63.5297851 37.1552734,65.8442383 40,65.8442383 C42.8447266,65.8442383 45.1591797,63.5297852 45.1591797,60.6845703 Z M40,63.8442383 C38.2578125,63.8442383 36.8408203,62.4267578 36.8408203,60.6845703 C36.8408203,58.9423828 38.2578125,57.5253906 40,57.5253906 C41.7421875,57.5253906 43.1591797,58.9423828 43.1591797,60.6845703 C43.1591797,62.4267578 41.7421875,63.8442383 40,63.8442383 Z" id="Shape"></path>
            <path d="M54.6264648,49.4672852 C53.2480468,49.4672852 51.9526367,50.0039063 50.9785156,50.9785157 C50.0039062,51.9526368 49.4672851,53.2480469 49.4672851,54.6264649 C49.4672851,56.0043946 50.0039062,57.2998047 50.9785156,58.2744141 C51.9526367,59.2490235 53.2480468,59.7856446 54.6264648,59.7856446 C56.0043945,59.7856446 57.2998046,59.2490235 58.274414,58.2744141 C59.2490234,57.2998047 59.7856445,56.0043946 59.7856445,54.6264649 C59.7856445,53.2480469 59.2490234,51.9526368 58.274414,50.9785157 C57.2998047,50.0039062 56.0043945,49.4672852 54.6264648,49.4672852 Z M56.8603516,56.8603516 C55.6669922,58.053711 53.5859375,58.053711 52.3925782,56.8603516 C51.7958985,56.2636719 51.4672852,55.4702149 51.4672852,54.6264649 C51.4672852,53.7827149 51.7958985,52.9892579 52.3925782,52.3925782 C52.9892579,51.7958985 53.7827149,51.4672852 54.6264649,51.4672852 C55.4702149,51.4672852 56.2636719,51.7958985 56.8603516,52.3925782 C57.4570313,52.9892579 57.7856446,53.7827149 57.7856446,54.6264649 C57.7856446,55.4702149 57.4570312,56.2636719 56.8603516,56.8603516 Z" id="Shape"></path>
            <path d="M55.5253906,40 C55.5253906,42.8447266 57.8398437,45.1591797 60.6845703,45.1591797 C63.5297851,45.1591797 65.8442383,42.8447266 65.8442383,40 C65.8442383,37.1552734 63.5297852,34.8408203 60.6845703,34.8408203 C57.8398438,34.8408203 55.5253906,37.1552734 55.5253906,40 Z M63.8442383,40 C63.8442383,41.7421875 62.4267578,43.1591797 60.6845703,43.1591797 C58.9423828,43.1591797 57.5253906,41.7421875 57.5253906,40 C57.5253906,38.2578125 58.9423828,36.8408203 60.6845703,36.8408203 C62.4267578,36.8408203 63.8442383,38.2578125 63.8442383,40 Z" id="Shape"></path>
            <path d="M54.6264648,20.2143555 C53.2480468,20.2143555 51.9526367,20.7509766 50.9785156,21.725586 C50.0039062,22.7001954 49.4672851,23.9956055 49.4672851,25.3735352 C49.4672851,26.7519532 50.0039062,28.0473633 50.9785156,29.0214844 C51.9526367,29.9960938 53.2480468,30.5327149 54.6264648,30.5327149 C56.0043945,30.5327149 57.2998046,29.9960938 58.274414,29.0214844 C59.2490234,28.0473633 59.7856445,26.7519532 59.7856445,25.3735352 C59.7856445,23.9956055 59.2490234,22.7001954 58.274414,21.725586 C57.2998046,20.7509766 56.0043945,20.2143555 54.6264648,20.2143555 Z M56.8603516,27.6074219 C55.6669922,28.8007813 53.5859375,28.8007813 52.3925782,27.6074219 C51.7958985,27.0107422 51.4672852,26.2172852 51.4672852,25.3735352 C51.4672852,24.5297852 51.7958985,23.7363282 52.3925782,23.1396485 C52.9892579,22.5429688 53.7827149,22.2143555 54.6264649,22.2143555 C55.4702149,22.2143555 56.2636719,22.5429688 56.8603516,23.1396485 C57.4570313,23.7363282 57.7856446,24.5297852 57.7856446,25.3735352 C57.7856446,26.2172852 57.4570312,27.0107422 56.8603516,27.6074219 Z" id="Shape"></path>
            <path d="M40,5.5532227 C40.5522461,5.5532227 41,5.1054688 41,4.5532227 L41,1 C41,0.4477539 40.5522461,0 40,0 C39.4477539,0 39,0.4477539 39,1 L39,4.5532227 C39,5.1054688 39.4477539,5.5532227 40,5.5532227 Z" id="Path"></path>
            <path d="M39,10.75 C39,11.3022461 39.4477539,11.75 40,11.75 C40.5522461,11.75 41,11.3022461 41,10.75 L41,8.3300781 C41,7.777832 40.5522461,7.3300781 40,7.3300781 C39.4477539,7.3300781 39,7.777832 39,8.3300781 L39,10.75 Z" id="Path"></path>
            <path d="M24.6923828,3.0449219 C24.1821289,3.2563477 23.9399414,3.8413086 24.1513672,4.3515625 L25.5112305,7.6342773 C25.6708985,8.0190429 26.0429688,8.2519531 26.4355469,8.2519531 C26.5629883,8.2519531 26.6928711,8.2270508 26.8178711,8.1752929 C27.328125,7.9638671 27.5703125,7.3789062 27.3588867,6.8686523 L25.9990234,3.5859375 C25.7871094,3.0761719 25.2021484,2.8325195 24.6923828,3.0449219 Z" id="Path"></path>
            <path d="M27.8828125,13.359375 C28.0424805,13.7446289 28.4145508,13.9770508 28.8071289,13.9770508 C28.9345703,13.9770508 29.0644531,13.9521485 29.1894531,13.9003906 C29.699707,13.6889648 29.9418945,13.1040039 29.7304687,12.59375 L28.8041992,10.3579102 C28.5922851,9.8476563 28.0073242,9.6044922 27.4975586,9.8168946 C26.9873047,10.0283204 26.7451172,10.6132813 26.956543,11.1235352 L27.8828125,13.359375 Z" id="Path"></path>
            <path d="M15.6425781,15.6425781 C16.0332031,15.2519531 16.0332031,14.6191406 15.6425781,14.2285156 L13.1298828,11.7158203 C12.7392578,11.3251953 12.1064453,11.3251953 11.7158203,11.7158203 C11.3251953,12.1064453 11.3251953,12.7392578 11.7158203,13.1298828 L14.2285156,15.6425781 C14.4238281,15.8378906 14.6796875,15.9355469 14.9355468,15.9355469 C15.1914061,15.9355469 15.4472656,15.8378906 15.6425781,15.6425781 Z" id="Path"></path>
            <path d="M18.3129883,16.8989258 C17.9223633,16.5083008 17.2895508,16.5083008 16.8989258,16.8989258 C16.5083008,17.2895508 16.5083008,17.9223633 16.8989258,18.3129883 L18.6098633,20.0239258 C18.8051758,20.2192383 19.0610352,20.3168946 19.3168945,20.3168946 C19.5727538,20.3168946 19.8286133,20.2192384 20.0239257,20.0239258 C20.4145507,19.6333008 20.4145507,19.0004883 20.0239257,18.6098633 L18.3129883,16.8989258 Z" id="Path"></path>
            <path d="M7.6342773,25.5112305 L4.3515625,24.1513672 C3.8393555,23.9399414 3.2563477,24.1821289 3.0449219,24.6923828 C2.8334961,25.2026367 3.0756836,25.7875976 3.5859375,25.9990234 L6.8686523,27.3588867 C6.9941406,27.4106445 7.1235351,27.4355469 7.2509765,27.4355469 C7.6435546,27.4355469 8.0156249,27.2026367 8.1752929,26.8178711 C8.3867188,26.3076172 8.1445312,25.7226562 7.6342773,25.5112305 Z" id="Path"></path>
            <path d="M9.8168945,27.4975586 C9.6054687,28.0078125 9.8476562,28.5927734 10.3579101,28.8041992 L12.5937499,29.7304687 C12.7187499,29.7822265 12.8486327,29.8071289 12.9760741,29.8071289 C13.3686522,29.8071289 13.7407225,29.5742187 13.9003905,29.1894531 C14.1118163,28.6791992 13.8696288,28.0942383 13.3593749,27.8828125 L11.1235351,26.956543 C10.6137695,26.7451172 10.0283203,26.9882812 9.8168945,27.4975586 Z" id="Path"></path>
            <path d="M1,41 L4.5532227,41 C5.1054688,41 5.5532227,40.5522461 5.5532227,40 C5.5532227,39.4477539 5.1054688,39 4.5532227,39 L1,39 C0.4477539,39 0,39.4477539 0,40 C0,40.5522461 0.4477539,41 1,41 Z" id="Path"></path>
            <path d="M7.3300781,40 C7.3300781,40.5522461 7.777832,41 8.3300781,41 L10.75,41 C11.3022461,41 11.75,40.5522461 11.75,40 C11.75,39.4477539 11.3022461,39 10.75,39 L8.3300781,39 C7.777832,39 7.3300781,39.4477539 7.3300781,40 Z" id="Path"></path>
            <path d="M3.0449219,55.3076172 C3.2045899,55.6923828 3.5766602,55.925293 3.9692383,55.925293 C4.0966797,55.925293 4.2265625,55.9003907 4.3515625,55.8486328 L7.6342773,54.4887695 C8.1445312,54.2773437 8.3867187,53.6923828 8.1752929,53.1821289 C7.9638671,52.6713867 7.3779296,52.4296875 6.8686523,52.6411133 L3.5859375,54.0009766 C3.0756836,54.2124023 2.8334961,54.7973633 3.0449219,55.3076172 Z" id="Path"></path>
            <path d="M13.9003906,50.8105469 C13.6889648,50.2998047 13.1040039,50.0585938 12.59375,50.2695313 L10.3579102,51.1958008 C9.8476563,51.4072266 9.6054688,51.9921875 9.8168946,52.5024414 C9.9765626,52.8876953 10.3486329,53.1201172 10.741211,53.1201172 C10.8686524,53.1201172 10.9985352,53.0952149 11.1235352,53.043457 L13.359375,52.1171875 C13.8696289,51.9057617 14.1118164,51.3208008 13.9003906,50.8105469 Z" id="Path"></path>
            <path d="M12.4228515,68.5771484 C12.678711,68.5771484 12.9345704,68.4794922 13.1298828,68.2841796 L15.6425781,65.7714843 C16.0332031,65.3808593 16.0332031,64.7480468 15.6425781,64.3574218 C15.2519531,63.9667968 14.6191406,63.9667968 14.2285156,64.3574218 L11.7158203,66.8701171 C11.3251953,67.2607421 11.3251953,67.8935546 11.7158203,68.2841796 C11.9111328,68.4794922 12.1669922,68.5771484 12.4228515,68.5771484 Z" id="Path"></path>
            <path d="M18.6098633,59.9760742 L16.8989258,61.6870117 C16.5083008,62.0776367 16.5083008,62.7104492 16.8989258,63.1010742 C17.0942383,63.2963867 17.3500977,63.394043 17.6059571,63.394043 C17.8618163,63.394043 18.1176758,63.2963868 18.3129882,63.1010742 L20.0239257,61.3901367 C20.4145507,60.9995117 20.4145507,60.3666992 20.0239257,59.9760742 C19.6333007,59.5854492 19.0004883,59.5854492 18.6098633,59.9760742 Z" id="Path"></path>
            <path d="M25.5112305,72.3657227 L24.1513672,75.6484375 C23.9399414,76.1586914 24.1821289,76.7436523 24.6923828,76.9550781 C24.8178711,77.0068359 24.9472656,77.0317383 25.074707,77.0317383 C25.4672851,77.0317383 25.8393554,76.7988281 25.9990234,76.4140625 L27.3588867,73.1313477 C27.5703125,72.6210938 27.328125,72.0361329 26.8178711,71.8247071 C26.3061523,71.6123047 25.7226562,71.855957 25.5112305,72.3657227 Z" id="Path"></path>
            <path d="M27.4975586,70.1831055 C27.6225586,70.2348633 27.7524414,70.2597657 27.8798828,70.2597657 C28.2724609,70.2597657 28.6445312,70.0268555 28.8041992,69.6420899 L29.7304687,67.4062501 C29.9418945,66.8959962 29.699707,66.3110353 29.1894531,66.0996095 C28.6787109,65.8881837 28.0942383,66.1303712 27.8828125,66.6406251 L26.956543,68.8764649 C26.7451172,69.3867188 26.9873047,69.9716797 27.4975586,70.1831055 Z" id="Path"></path>
            <path d="M40,74.4467773 C39.4477539,74.4467773 39,74.8945312 39,75.4467773 L39,79 C39,79.5522461 39.4477539,80 40,80 C40.5522461,80 41,79.5522461 41,79 L41,75.4467773 C41,74.8945312 40.5522461,74.4467773 40,74.4467773 Z" id="Path"></path>
            <path d="M41,69.25 C41,68.6977539 40.5522461,68.25 40,68.25 C39.4477539,68.25 39,68.6977539 39,69.25 L39,71.6699219 C39,72.222168 39.4477539,72.6699219 40,72.6699219 C40.5522461,72.6699219 41,72.222168 41,71.6699219 L41,69.25 Z" id="Path"></path>
            <path d="M54.4887695,72.3657227 C54.2773437,71.8559571 53.6918945,71.6123047 53.1821289,71.8247071 C52.671875,72.0361329 52.4296875,72.6210938 52.6411133,73.1313477 L54.0009766,76.4140625 C54.1606446,76.7988281 54.5327149,77.0317383 54.925293,77.0317383 C55.0527344,77.0317383 55.1826172,77.006836 55.3076172,76.9550781 C55.8178711,76.7436523 56.0600586,76.1586914 55.8486328,75.6484375 L54.4887695,72.3657227 Z" id="Path"></path>
            <path d="M52.1171875,66.640625 C51.9052734,66.1298828 51.3208008,65.8881836 50.8105469,66.0996094 C50.300293,66.3110352 50.0581055,66.8959961 50.2695313,67.40625 L51.1958008,69.6420898 C51.3554688,70.0273437 51.7275391,70.2597656 52.1201172,70.2597656 C52.2475586,70.2597656 52.3774414,70.2348633 52.5024414,70.1831054 C53.0126953,69.9716796 53.2548828,69.3867187 53.043457,68.8764648 L52.1171875,66.640625 Z" id="Path"></path>
            <path d="M67.5771484,68.5771484 C67.8330078,68.5771484 68.0888672,68.4794922 68.2841796,68.2841796 C68.6748046,67.8935546 68.6748046,67.2607421 68.2841796,66.8701171 L65.7714843,64.3574218 C65.3808593,63.9667968 64.7480468,63.9667968 64.3574218,64.3574218 C63.9667968,64.7480468 63.9667968,65.3808593 64.3574218,65.7714843 L66.8701171,68.2841796 C67.0654297,68.4794922 67.3212891,68.5771484 67.5771484,68.5771484 Z" id="Path"></path>
            <path d="M61.3901367,59.9760742 C60.9995117,59.5854492 60.3666992,59.5854492 59.9760742,59.9760742 C59.5854492,60.3666992 59.5854492,60.9995117 59.9760742,61.3901367 L61.6870117,63.1010742 C61.8823242,63.2963867 62.1381836,63.394043 62.3940429,63.394043 C62.6499022,63.394043 62.9057617,63.2963868 63.1010741,63.1010742 C63.4916991,62.7104492 63.4916991,62.0776367 63.1010741,61.6870117 L61.3901367,59.9760742 Z" id="Path"></path>
            <path d="M76.0307617,55.925293 C76.4233398,55.925293 76.7954101,55.6923828 76.9550781,55.3076172 C77.1665039,54.7973633 76.9243164,54.2124024 76.4140625,54.0009766 L73.1313477,52.6411133 C72.6196289,52.4296875 72.0361329,52.6723633 71.8247071,53.1821289 C71.6132813,53.6923828 71.8554688,54.2773437 72.3657227,54.4887695 L75.6484375,55.8486328 C75.7739258,55.9003906 75.9033203,55.925293 76.0307617,55.925293 Z" id="Path"></path>
            <path d="M69.2587891,53.1201172 C69.6513672,53.1201172 70.0234375,52.887207 70.1831055,52.5024414 C70.3945313,51.9921875 70.1523438,51.4072266 69.6420899,51.1958008 L67.40625,50.2695312 C66.8955078,50.0585937 66.3105469,50.3007812 66.0996094,50.8105468 C65.8881836,51.3208007 66.1303711,51.9057616 66.640625,52.1171874 L68.8764648,53.0434569 C69.0014648,53.0952148 69.1313477,53.1201172 69.2587891,53.1201172 Z" id="Path"></path>
            <path d="M79,39 L75.4467773,39 C74.8945312,39 74.4467773,39.4477539 74.4467773,40 C74.4467773,40.5522461 74.8945312,41 75.4467773,41 L79,41 C79.5522461,41 80,40.5522461 80,40 C80,39.4477539 79.5522461,39 79,39 Z" id="Path"></path>
            <path d="M69.25,39 C68.6977539,39 68.25,39.4477539 68.25,40 C68.25,40.5522461 68.6977539,41 69.25,41 L71.6699219,41 C72.222168,41 72.6699219,40.5522461 72.6699219,40 C72.6699219,39.4477539 72.222168,39 71.6699219,39 L69.25,39 Z" id="Path"></path>
            <path d="M76.9550781,24.6923828 C76.7436523,24.1821289 76.1582031,23.9399414 75.6484375,24.1513672 L72.3657227,25.5112305 C71.8554688,25.7226563 71.6132813,26.3076172 71.8247071,26.8178711 C71.9843751,27.203125 72.3564454,27.4355469 72.7490235,27.4355469 C72.8764649,27.4355469 73.0063477,27.4106446 73.1313477,27.3588867 L76.4140625,25.9990234 C76.9243164,25.7875977 77.1665039,25.2026367 76.9550781,24.6923828 Z" id="Path"></path>
            <path d="M68.8764648,26.956543 L66.640625,27.8828125 C66.1303711,28.0942383 65.8881836,28.6791992 66.0996094,29.1894531 C66.2592774,29.574707 66.6313477,29.8071289 67.0239258,29.8071289 C67.1513672,29.8071289 67.28125,29.7822266 67.40625,29.7304687 L69.6420898,28.8041992 C70.1523437,28.5927734 70.3945312,28.0078125 70.1831054,27.4975586 C69.9716797,26.9868164 69.3857422,26.7451172 68.8764648,26.956543 Z" id="Path"></path>
            <path d="M65.064453,15.9355469 C65.3203125,15.9355469 65.5761719,15.8378907 65.7714843,15.6425781 L68.2841796,13.1298828 C68.6748046,12.7392578 68.6748046,12.1064453 68.2841796,11.7158203 C67.8935546,11.3251953 67.2607421,11.3251953 66.8701171,11.7158203 L64.3574218,14.2285156 C63.9667968,14.6191406 63.9667968,15.2519531 64.3574218,15.6425781 C64.5527344,15.8378906 64.8085938,15.9355469 65.064453,15.9355469 Z" id="Path"></path>
            <path d="M61.6870117,16.8989258 L59.9760742,18.6098633 C59.5854492,19.0004883 59.5854492,19.6333008 59.9760742,20.0239258 C60.1713867,20.2192383 60.4272461,20.3168946 60.6831054,20.3168946 C60.9389647,20.3168946 61.1948242,20.2192384 61.3901366,20.0239258 L63.1010741,18.3129883 C63.4916991,17.9223633 63.4916991,17.2895508 63.1010741,16.8989258 C62.7104491,16.5083008 62.0776367,16.5083008 61.6870117,16.8989258 Z" id="Path"></path>
            <path d="M53.5644531,8.2519531 C53.9570312,8.2519531 54.3291015,8.0190429 54.4887695,7.6342773 L55.8486328,4.3515625 C56.0600586,3.8413086 55.8178711,3.2563477 55.3076172,3.0449219 C54.7954102,2.8325196 54.2124024,3.0761719 54.0009766,3.5859375 L52.6411133,6.8686523 C52.4296875,7.3789062 52.671875,7.9638671 53.1821289,8.1752929 C53.3076172,8.2270508 53.4370117,8.2519531 53.5644531,8.2519531 Z" id="Path"></path>
            <path d="M50.8105469,13.9003906 C50.9355469,13.9521484 51.0654297,13.9770508 51.1928711,13.9770508 C51.5854492,13.9770508 51.9575195,13.7441406 52.1171875,13.359375 L53.043457,11.1235352 C53.2548828,10.6132813 53.0126953,10.0283204 52.5024414,9.8168946 C51.9921875,9.6044923 51.4072266,9.8481446 51.1958008,10.3579102 L50.2695312,12.59375 C50.0581055,13.1040039 50.300293,13.6889648 50.8105469,13.9003906 Z" id="Path"></path>
            <path d="M40,26.8803711 C39.4477539,26.8803711 39,27.328125 39,27.8803711 L39,28.987793 C39,29.5400391 39.4477539,29.987793 40,29.987793 C40.5522461,29.987793 41,29.5400391 41,28.987793 L41,27.8803711 C41,27.328125 40.5522461,26.8803711 40,26.8803711 Z" id="Path"></path>
            <path d="M34.4257812,29.1879883 L34.849121,30.2104492 C35.0083007,30.5957031 35.3808593,30.8286133 35.7734374,30.8286133 C35.9008788,30.8286133 36.0302733,30.803711 36.1552733,30.7519531 C36.6660155,30.5410156 36.908203,29.9560547 36.6967772,29.4458008 L36.2734374,28.4233399 C36.0620116,27.913086 35.4770507,27.6699219 34.9672851,27.881836 C34.456543,28.0927734 34.2143555,28.6777344 34.4257812,29.1879883 Z" id="Path"></path>
            <path d="M30.699707,32.1474609 L31.4829101,32.9301757 C31.6782226,33.1249999 31.934082,33.2226562 32.1899413,33.2226562 C32.4458006,33.2226562 32.7021483,33.125 32.8974608,32.9296874 C33.2875975,32.5390624 33.2875975,31.9057616 32.8969725,31.5151366 L32.1137694,30.7324218 C31.7231444,30.3427734 31.0898436,30.3422851 30.6992186,30.7329101 C30.309082,31.1235352 30.309082,31.7568359 30.699707,32.1474609 Z" id="Path"></path>
            <path d="M29.1552734,34.4584961 C28.6450195,34.246582 28.0600586,34.4897461 27.8486328,34.9995117 C27.637207,35.5097656 27.8793945,36.0947265 28.3896484,36.3061523 L29.4125976,36.7299804 C29.5375976,36.7817382 29.6674804,36.8066406 29.7949218,36.8066406 C30.1874999,36.8066406 30.5595702,36.5737304 30.7192382,36.1889648 C30.930664,35.6787109 30.6884765,35.09375 30.1782226,34.8823242 L29.1552734,34.4584961 Z" id="Path"></path>
            <path d="M26.8476562,40.0327148 C26.8476562,40.5849609 27.2954101,41.0327148 27.8476562,41.0327148 L28.9545898,41.0327148 C29.5068359,41.0327148 29.9545898,40.5849609 29.9545898,40.0327148 C29.9545898,39.4804687 29.5068359,39.0327148 28.9545898,39.0327148 L27.8476562,39.0327148 C27.2954102,39.0327148 26.8476562,39.4804688 26.8476562,40.0327148 Z" id="Path"></path>
            <path d="M30.7192383,43.8769531 C30.5078125,43.3662109 29.9223633,43.125 29.4125977,43.3359375 L28.3896485,43.7597656 C27.8793946,43.9711914 27.6372071,44.5561523 27.8486329,45.0664062 C28.0083009,45.4516601 28.3803712,45.684082 28.7729493,45.684082 C28.9003907,45.684082 29.0302735,45.6591797 29.1552735,45.6074218 L30.1782227,45.1835937 C30.6884766,44.972168 30.9306641,44.387207 30.7192383,43.8769531 Z" id="Path"></path>
            <path d="M31.4067383,49.6259766 C31.6625977,49.6259766 31.9184571,49.5283204 32.1137695,49.3330078 L32.8969726,48.5498047 C33.2875976,48.1591797 33.2875976,47.5263672 32.8969726,47.1357422 C32.5063476,46.7451172 31.8735351,46.7451172 31.4829101,47.1357422 L30.699707,47.9189453 C30.309082,48.3095703 30.309082,48.9423828 30.699707,49.3330078 C30.8950195,49.5283203 31.1508789,49.6259766 31.4067383,49.6259766 Z" id="Path"></path>
            <path d="M34.9672852,52.184082 C35.0922852,52.2358398 35.2216797,52.2607422 35.3491211,52.2607422 C35.7416992,52.2607422 36.1142578,52.027832 36.2734375,51.6425781 L36.6967773,50.6196289 C36.9082031,50.109375 36.6655273,49.5244141 36.1552734,49.3134766 C35.6445312,49.1020508 35.0595703,49.3442383 34.8491211,49.8549805 L34.4257813,50.8779297 C34.2143555,51.3881836 34.4570312,51.9731445 34.9672852,52.184082 Z" id="Path"></path>
            <path d="M41,52.1850586 L41,51.078125 C41,50.5258789 40.5522461,50.078125 40,50.078125 C39.4477539,50.078125 39,50.5258789 39,51.078125 L39,52.1850586 C39,52.7373047 39.4477539,53.1850586 40,53.1850586 C40.5522461,53.1850586 41,52.7373047 41,52.1850586 Z" id="Path"></path>
            <path d="M45.5742188,50.8779297 L45.150879,49.8549805 C44.9399415,49.3442383 44.3554688,49.1020508 43.8447267,49.3134766 C43.3344728,49.5244141 43.091797,50.109375 43.3032228,50.6196289 L43.7265626,51.6425781 C43.8857423,52.027832 44.2583009,52.2607422 44.650879,52.2607422 C44.7783204,52.2607422 44.9077149,52.2358399 45.0327149,52.184082 C45.5429688,51.9731445 45.7856445,51.3881836 45.5742188,50.8779297 Z" id="Path"></path>
            <path d="M47.1030273,47.1357422 C46.7124023,47.5263672 46.7124023,48.1591797 47.1030273,48.5498047 L47.8862304,49.3330078 C48.0815429,49.5283203 48.3374023,49.6259766 48.5932616,49.6259766 C48.8491209,49.6259766 49.1049804,49.5283204 49.3002928,49.3330078 C49.6909178,48.9423828 49.6909178,48.3095703 49.3002928,47.9189453 L48.5170897,47.1357422 C48.1264648,46.7451172 47.4936523,46.7451172 47.1030273,47.1357422 Z" id="Path"></path>
            <path d="M49.8217773,45.1835938 L50.8447265,45.6074219 C50.9697265,45.6591797 51.0996093,45.6840821 51.2270507,45.6840821 C51.6196288,45.6840821 51.9916991,45.4511719 52.1513671,45.0664063 C52.3627929,44.5561524 52.1206054,43.9711915 51.6103515,43.7597663 L50.5874023,43.3359376 C50.0776367,43.1250001 49.4921875,43.3671876 49.2807617,43.8769532 C49.0693359,44.387207 49.3115234,44.972168 49.8217773,45.1835938 Z" id="Path"></path>
            <path d="M52.1523438,39.0327148 L51.0454102,39.0327148 C50.4931641,39.0327148 50.0454102,39.4804687 50.0454102,40.0327148 C50.0454102,40.5849609 50.4931641,41.0327148 51.0454102,41.0327148 L52.1523438,41.0327148 C52.7045899,41.0327148 53.1523438,40.5849609 53.1523438,40.0327148 C53.1523438,39.4804687 52.7045898,39.0327148 52.1523438,39.0327148 Z" id="Path"></path>
            <path d="M50.8447266,34.4584961 L49.8217774,34.8823242 C49.3115235,35.09375 49.069336,35.6787109 49.2807618,36.1889648 C49.4404298,36.5742187 49.8125001,36.8066406 50.2050782,36.8066406 C50.3325196,36.8066406 50.4624024,36.7817383 50.5874024,36.7299804 L51.6103516,36.3061523 C52.1206055,36.0947265 52.362793,35.5097656 52.1513672,34.9995117 C51.9394531,34.4887695 51.3544922,34.246582 50.8447266,34.4584961 Z" id="Path"></path>
            <path d="M47.8862305,30.7324219 L47.1030274,31.5151367 C46.7124024,31.9057617 46.7124024,32.5390625 47.1025391,32.9296875 C47.2978516,33.125 47.5541993,33.2226563 47.8100586,33.2226563 C48.0659179,33.2226563 48.3217774,33.1250001 48.5170898,32.9301758 L49.3002929,32.147461 C49.6909179,31.756836 49.6909179,31.1235352 49.3007812,30.7329102 C48.9101562,30.3422852 48.2768555,30.3427734 47.8862305,30.7324219 Z" id="Path"></path>
            <path d="M45.0327148,27.8818359 C44.5224609,27.6699218 43.9370117,27.9130859 43.7265625,28.4233398 L43.3032227,29.4458007 C43.0917969,29.9560546 43.3339844,30.5410155 43.8447266,30.751953 C43.9697266,30.8037108 44.0991211,30.8286132 44.2265625,30.8286132 C44.6191406,30.8286132 44.9916992,30.595703 45.1508789,30.2104491 L45.5742187,29.1879882 C45.7856445,28.6777344 45.543457,28.0927734 45.0327148,27.8818359 Z" id="Path"></path>
        </g>
    </g>
</svg>